{ "entrance":[34, 20],
 "height":37,
 "map":[12, 12, 12, 12, 12, 12, 12, 12, 12, 12, 12, 12, 12, 12, 12, 12, 12, 12, 12, 12, 12, 12, 12, 12, 12, 12, 12, 12, 12, 12, 12, 12, 12, 12, 12, 12, 12, 12, 12, 12, 12, 12, 12, 12, 12, 12, 12, 12, 12, 12, 12, 12, 12, 12, 12, 12, 12, 12, 12, 12, 12, 12, 12, 12, 12, 12, 12, 12, 12, 12, 12, 12, 12, 12, 12, 12, 1, 1, 1, 12, 1, 1, 12, 1, 1, 15, 1, 1, 1, 12, 1, 8, 1, 1, 1, 1, 2, 1, 1, 2, 1, 1, 1, 12, 1, 1, 12, 1, 1, 12, 12, 12, 12, 1, 1, 12, 1, 1, 1, 1, 1, 12, 15, 1, 1, 1, 1, 1, 12, 1, 1, 12, 1, 1, 1, 12, 1, 1, 2, 1, 1, 1, 1, 1, 1, 1, 12, 12, 12, 12, 1, 1, 1, 1, 12, 1, 1, 15, 2, 2, 1, 2, 1, 15, 1, 1, 1, 15, 2, 12, 1, 1, 1, 1, 1, 1, 1, 27, 28, 27, 1, 12, 1, 12, 12, 12, 12, 12, 15, 12, 1, 15, 2, 1, 1, 2, 2, 15, 12, 2, 15, 2, 1, 12, 2, 2, 15, 12, 15, 12, 1, 12, 1, 28, 28, 28, 28, 28, 1, 1, 12, 12, 12, 12, 12, 12, 2, 1, 1, 4, 4, 4, 4, 4, 4, 4, 4, 4, 4, 4, 4, 4, 4, 1, 1, 1, 1, 15, 1, 1, 27, 28, 28, 28, 27, 1, 1, 12, 12, 12, 12, 12, 15, 1, 1, 1, 4, 14, 13, 14, 36, 14, 14, 11, 11, 14, 14, 14, 14, 4, 2, 12, 1, 1, 12, 2, 1, 28, 28, 28, 28, 28, 1, 1, 12, 12, 12, 12, 12, 2, 12, 1, 1, 4, 14, 14, 14, 14, 14, 14, 14, 14, 14, 14, 14, 14, 4, 1, 1, 15, 1, 1, 2, 12, 1, 27, 28, 27, 1, 1, 1, 12, 12, 12, 12, 1, 1, 1, 15, 1, 4, 14, 14, 14, 14, 14, 14, 14, 14, 14, 14, 14, 14, 4, 15, 1, 2, 12, 1, 1, 1, 1, 1, 1, 1, 1, 12, 1, 12, 12, 12, 12, 1, 15, 1, 12, 1, 4, 14, 14, 14, 14, 14, 14, 14, 14, 14, 14, 14, 13, 4, 1, 12, 1, 15, 1, 12, 1, 1, 12, 2, 1, 15, 1, 1, 12, 12, 12, 12, 12, 1, 1, 1, 1, 4, 13, 14, 14, 14, 14, 14, 14, 14, 14, 14, 14, 14, 4, 1, 2, 1, 1, 12, 1, 2, 2, 1, 1, 12, 2, 2, 1, 12, 12, 12, 12, 2, 1, 15, 12, 1, 4, 14, 14, 14, 14, 14, 4, 4, 4, 4, 4, 4, 4, 4, 1, 1, 1, 1, 1, 1, 12, 2, 15, 1, 1, 1, 1, 1, 12, 12, 12, 12, 2, 2, 2, 2, 1, 4, 14, 14, 14, 14, 14, 4, 36, 14, 14, 4, 14, 14, 4, 1, 12, 12, 1, 1, 1, 2, 15, 12, 1, 1, 15, 1, 1, 12, 12, 12, 12, 2, 12, 15, 1, 12, 4, 14, 14, 14, 14, 14, 4, 14, 14, 14, 4, 14, 14, 4, 1, 1, 15, 1, 1, 1, 12, 1, 1, 1, 15, 1, 1, 1, 12, 12, 12, 12, 1, 1, 1, 1, 1, 4, 14, 14, 14, 14, 14, 5, 14, 14, 14, 4, 14, 14, 4, 1, 1, 1, 12, 2, 1, 1, 1, 1, 1, 1, 12, 1, 1, 12, 12, 12, 12, 2, 15, 12, 1, 1, 4, 14, 14, 14, 14, 14, 4, 14, 14, 14, 25, 14, 14, 4, 1, 1, 1, 1, 1, 1, 1, 1, 1, 1, 1, 1, 1, 1, 12, 12, 12, 12, 1, 1, 1, 1, 1, 4, 14, 14, 14, 14, 14, 4, 14, 14, 14, 4, 4, 4, 4, 4, 4, 4, 4, 4, 4, 4, 4, 4, 1, 1, 1, 1, 1, 12, 12, 12, 12, 12, 15, 15, 12, 1, 4, 4, 4, 4, 4, 4, 4, 14, 14, 14, 14, 14, 14, 14, 13, 11, 11, 14, 36, 14, 14, 14, 4, 1, 1, 1, 1, 1, 12, 12, 12, 12, 1, 1, 15, 1, 1, 1, 4, 14, 13, 14, 14, 4, 14, 14, 14, 14, 14, 14, 14, 14, 14, 14, 14, 14, 14, 14, 14, 4, 1, 1, 1, 1, 1, 12, 12, 12, 12, 2, 12, 1, 1, 1, 1, 4, 14, 14, 14, 14, 5, 14, 14, 14, 14, 14, 14, 14, 14, 14, 14, 14, 14, 14, 14, 14, 5, 1, 1, 1, 1, 7, 12, 12, 12, 12, 1, 1, 1, 1, 1, 1, 4, 14, 14, 14, 14, 4, 14, 14, 14, 14, 14, 14, 14, 14, 14, 14, 14, 14, 14, 14, 14, 4, 1, 1, 1, 1, 1, 12, 12, 12, 12, 1, 15, 12, 2, 2, 1, 4, 36, 14, 14, 14, 4, 4, 4, 11, 11, 14, 14, 14, 14, 14, 14, 13, 14, 14, 14, 14, 4, 1, 1, 1, 1, 1, 12, 12, 12, 12, 1, 12, 15, 2, 2, 1, 4, 14, 14, 14, 14, 14, 13, 4, 4, 4, 4, 4, 4, 4, 4, 4, 4, 4, 4, 4, 4, 4, 1, 1, 1, 1, 1, 12, 12, 12, 12, 1, 1, 2, 2, 12, 1, 4, 14, 14, 14, 14, 14, 14, 4, 1, 1, 1, 1, 1, 1, 1, 1, 1, 1, 1, 1, 1, 1, 1, 1, 1, 1, 1, 12, 12, 12, 12, 1, 12, 2, 15, 1, 1, 4, 14, 14, 14, 14, 14, 14, 4, 1, 1, 1, 1, 1, 1, 1, 1, 2, 1, 1, 1, 1, 12, 2, 1, 1, 1, 1, 12, 12, 12, 12, 15, 2, 12, 1, 1, 15, 4, 14, 14, 14, 14, 14, 14, 4, 1, 1, 1, 12, 1, 1, 12, 1, 2, 12, 1, 1, 1, 15, 1, 15, 1, 1, 1, 12, 12, 12, 12, 1, 1, 1, 12, 1, 1, 4, 11, 14, 14, 14, 14, 14, 4, 1, 12, 1, 1, 1, 15, 1, 1, 15, 2, 15, 1, 12, 1, 1, 12, 2, 1, 1, 12, 12, 12, 12, 1, 15, 1, 1, 12, 1, 4, 14, 14, 14, 14, 14, 13, 4, 1, 1, 1, 12, 1, 1, 1, 1, 1, 12, 2, 2, 1, 1, 15, 1, 1, 1, 1, 12, 12, 12, 12, 12, 2, 2, 1, 1, 1, 4, 14, 14, 14, 14, 14, 36, 4, 1, 12, 1, 15, 1, 12, 1, 12, 2, 1, 2, 2, 15, 1, 12, 1, 1, 1, 1, 12, 12, 12, 12, 1, 2, 12, 1, 15, 1, 4, 4, 4, 4, 4, 4, 4, 4, 1, 1, 1, 1, 1, 15, 1, 2, 1, 1, 15, 12, 1, 1, 1, 15, 2, 1, 1, 12, 12, 12, 12, 1, 1, 1, 1, 12, 1, 1, 1, 1, 2, 12, 1, 1, 1, 1, 1, 12, 15, 1, 1, 12, 2, 15, 1, 2, 15, 1, 1, 1, 12, 1, 1, 1, 12, 12, 12, 12, 1, 2, 12, 2, 1, 1, 1, 15, 1, 1, 1, 2, 12, 2, 1, 1, 1, 1, 2, 1, 1, 2, 2, 12, 2, 15, 1, 12, 15, 1, 1, 12, 1, 12, 12, 12, 12, 1, 1, 2, 1, 1, 12, 1, 1, 15, 12, 15, 1, 12, 2, 12, 1, 2, 12, 2, 1, 15, 1, 1, 1, 1, 12, 1, 15, 1, 2, 1, 1, 1, 12, 12, 12, 12, 1, 1, 1, 1, 1, 1, 1, 12, 1, 1, 1, 1, 1, 1, 1, 1, 8, 1, 1, 1, 1, 15, 12, 15, 1, 1, 1, 1, 1, 1, 1, 12, 1, 12, 12, 12, 12, 12, 12, 12, 12, 12, 12, 12, 12, 12, 12, 12, 12, 12, 12, 12, 12, 12, 12, 12, 12, 12, 12, 12, 12, 12, 12, 12, 12, 12, 12, 12, 12, 12, 12, 12, 12, 12, 12, 12, 12, 12, 12, 12, 12, 12, 12, 12, 12, 12, 12, 12, 12, 12, 12, 12, 12, 12, 12, 12, 12, 12, 12, 12, 12, 12, 12, 12, 12, 12, 12, 12, 12],
 "multiexit":[[17, 2], [18, 34]],
 "tiles":"tilessovet_x.png",
 "water":"water0.png",
 "width":37,
"items" : [
{"kind":"Pasty","x":19,"y":16,"quantity"=3},
{"kind":"Javelin","x":19,"y":15,"quantity"=5},
{"kind":"CommonArrow","x":19,"y":14,"quantity"=30},
{"kind":"PotionOfStrength","x":19,"y":13},
{"kind":"MailArmor","x":18,"y":13, "level":3},
{"kind":"RubyBow","x":18,"y":14, "level":3}
]
}
